module gitlab.ozon.dev/sloory.d/telegram-bot

go 1.19

require (
	github.com/DmitriyVTitov/size v1.5.0
	github.com/Shopify/sarama v1.37.2
	github.com/deathowl/go-metrics-prometheus v0.0.0-20221009205350-f2a1482ba35b
	github.com/envoyproxy/protoc-gen-validate v0.9.0
	github.com/go-telegram-bot-api/telegram-bot-api/v5 v5.5.1
	github.com/grpc-ecosystem/grpc-gateway/v2 v2.13.0
	github.com/lib/pq v1.10.7
	github.com/opentracing/opentracing-go v1.2.0
	github.com/pkg/errors v0.9.1
	github.com/prometheus/client_golang v1.13.0
	github.com/rcrowley/go-metrics v0.0.0-20201227073835-cf1acfcdf475
	github.com/stretchr/testify v1.8.0
	github.com/uber/jaeger-client-go v2.30.0+incompatible
	go.uber.org/zap v1.23.0
	google.golang.org/genproto v0.0.0-20221027153422-115e99e71e1c
	google.golang.org/grpc v1.50.1
	google.golang.org/protobuf v1.28.1
	gopkg.in/yaml.v3 v3.0.1
)

require (
	github.com/HdrHistogram/hdrhistogram-go v1.1.2 // indirect
	github.com/beorn7/perks v1.0.1 // indirect
	github.com/cespare/xxhash/v2 v2.1.2 // indirect
	github.com/davecgh/go-spew v1.1.1 // indirect
	github.com/eapache/go-resiliency v1.3.0 // indirect
	github.com/eapache/go-xerial-snappy v0.0.0-20180814174437-776d5712da21 // indirect
	github.com/eapache/queue v1.1.0 // indirect
	github.com/golang/glog v1.0.0 // indirect
	github.com/golang/protobuf v1.5.2 // indirect
	github.com/golang/snappy v0.0.4 // indirect
	github.com/hashicorp/errwrap v1.0.0 // indirect
	github.com/hashicorp/go-multierror v1.1.1 // indirect
	github.com/hashicorp/go-uuid v1.0.3 // indirect
	github.com/iancoleman/strcase v0.2.0 // indirect
	github.com/jcmturner/aescts/v2 v2.0.0 // indirect
	github.com/jcmturner/dnsutils/v2 v2.0.0 // indirect
	github.com/jcmturner/gofork v1.7.6 // indirect
	github.com/jcmturner/gokrb5/v8 v8.4.3 // indirect
	github.com/jcmturner/rpc/v2 v2.0.3 // indirect
	github.com/klauspost/compress v1.15.11 // indirect
	github.com/lyft/protoc-gen-star v0.6.1 // indirect
	github.com/matttproud/golang_protobuf_extensions v1.0.1 // indirect
	github.com/pierrec/lz4/v4 v4.1.17 // indirect
	github.com/pmezard/go-difflib v1.0.0 // indirect
	github.com/prometheus/client_model v0.2.0 // indirect
	github.com/prometheus/common v0.37.0 // indirect
	github.com/prometheus/procfs v0.8.0 // indirect
	github.com/rogpeppe/go-internal v1.9.0 // indirect
	github.com/spf13/afero v1.9.2 // indirect
	github.com/uber/jaeger-lib v2.4.1+incompatible // indirect
	go.uber.org/atomic v1.7.0 // indirect
	go.uber.org/multierr v1.6.0 // indirect
	golang.org/x/crypto v0.1.0 // indirect
	golang.org/x/lint v0.0.0-20210508222113-6edffad5e616 // indirect
	golang.org/x/mod v0.6.0 // indirect
	golang.org/x/net v0.1.0 // indirect
	golang.org/x/sys v0.1.0 // indirect
	golang.org/x/text v0.4.0 // indirect
	golang.org/x/tools v0.2.0 // indirect
)
